Everybody Talks About the Weather
…
GSOD Data Files

A raw data file

## Warning: Missing column names filled in: 'X5' [5], 'X7' [7], 'X9' [9],
## 'X11' [11], 'X13' [13], 'X15' [15]

## # A tibble: 140 x 22
##   `STN---`  WBAN YEARMODA  TEMP    X5  DEWP    X7    SLP    X9   STP
##      <int> <int>    <int> <dbl> <int> <dbl> <int>  <dbl> <int> <dbl>
## 1   983280 99999 20170101  63.9     8  58.8     8 1011.0     8 852.8
## 2   983280 99999 20170102  66.4     7  57.5     7 1009.7     7 852.1
## 3   983280 99999 20170103  64.3     8  59.4     8 1010.0     8 852.1
## 4   983280 99999 20170104  66.5     8  59.8     8 1009.0     8 851.5
## # ... with 136 more rows, and 12 more variables: X11 <int>, VISIB <dbl>,
## #   X13 <int>, WDSP <dbl>, X15 <int>, MXSPD <dbl>, GUST <dbl>, MAX <chr>,
## #   MIN <chr>, PRCP <chr>, SNDP <dbl>, FRSHTT <chr>
…
