I Did Something About the Weather
…
GSOD data files

A raw data file

## Warning: Missing column names filled in: 'X5' [5], 'X7' [7], 'X9' [9],
## 'X11' [11], 'X13' [13], 'X15' [15]

## # A tibble: 139 x 22
##    `STN---`  WBAN YEARMODA  TEMP    X5  DEWP    X7    SLP    X9   STP
##       <int> <int>    <int> <dbl> <int> <dbl> <int>  <dbl> <int> <dbl>
##  1   955510 99999 20170101  79.2     8  69.0     8 1006.7     8 935.9
##  2   955510 99999 20170102  71.8     8  67.1     8 1008.6     8 937.6
##  3   955510 99999 20170103  68.6     8  60.6     8 1012.9     8 941.6
##  4   955510 99999 20170104  69.6     8  59.6     8 1013.6     8 942.3
##  5   955510 99999 20170105  70.0     8  62.5     8 1012.3     8 941.1
##  6   955510 99999 20170106  69.3     8  62.3     8 1012.8     8 941.5
##  7   955510 99999 20170107  67.3     8  60.1     8 1012.2     8 941.0
##  8   955510 99999 20170108  68.9     8  57.8     8 1012.6     8 941.4
##  9   955510 99999 20170109  72.7     8  62.4     8 1012.8     8 941.6
## 10   955510 99999 20170110  76.1     8  65.1     8 1012.6     8 941.4
## # ... with 129 more rows, and 12 more variables: X11 <int>, VISIB <dbl>,
## #   X13 <int>, WDSP <dbl>, X15 <int>, MXSPD <dbl>, GUST <dbl>, MAX <chr>,
## #   MIN <chr>, PRCP <chr>, SNDP <dbl>, FRSHTT <chr>
…
